cpy a b
dec b
cpy a d
cpy 0 a
cpy b c   #           | c := b
inc a     # |         |
dec c     # | a += c  |
jnz c -2  # |         |
dec d     #           | a += (d * c)
jnz d -5  #           |
dec b
cpy b c
cpy c d
dec d
inc c
jnz d -2
tgl c
cpy -16 c
jnz 1 c
cpy 95 c
jnz 99 d
inc a
inc d
jnz d -2
inc c
jnz c -5